0.0
0.0
0.0
0.0
0.0
0.05433057000000001
0.5579021616253548
1.5693208748817662
2.720549061822267
2.696928873111772
3.168277961462358
3.1631530066211284
3.143930239132236
3.1184461628348847
3.150983761332715
2.7625245017853657
1.5862630261235346
1.1768236880000014
0.26912368799999997
0.0
0.0
0.0
0.0
0.0
